{
  "project_info": {
    "project_number": "570871234157",
    "project_id": "colorblindness-e5ab1",
    "storage_bucket": "colorblindness-e5ab1.appspot.com"
  },
  "client": [
    {
      "client_info": {
        "mobilesdk_app_id": "1:570871234157:android:2e679872e22389931d8964",
        "android_client_info": {
          "package_name": "com.example.color"
        }
      },
      "oauth_client": [
        {
          "client_id": "570871234157-tt3mu7ckmbfikt8ggt1hv80vkuouatus.apps.googleusercontent.com",
          "client_type": 3
        }
      ],
      "api_key": [
        {
          "current_key": "AIzaSyCjZrgF3OQF7X3mjwSx0Elnkos1E77fWz4"
        }
      ],
      "services": {
        "appinvite_service": {
          "other_platform_oauth_client": [
            {
              "client_id": "570871234157-tt3mu7ckmbfikt8ggt1hv80vkuouatus.apps.googleusercontent.com",
              "client_type": 3
            }
          ]
        }
      }
    }
  ],
  "configuration_version": "1"
}